perip_sqr_TB.vcd
$date
	Mon Nov 24 06:19:26 2025
$end
$version
	Icarus Verilog
$end
$timescale
	1ps
$end
$scope module peripheral_sqr_TB $end
$var wire 32 ! d_out [31:0] $end
$var parameter 32 " PERIOD $end
$var reg 5 # addr [4:0] $end
$var reg 1 $ clk $end
$var reg 1 % cs $end
$var reg 16 & d_in [15:0] $end
$var reg 1 ' rd $end
$var reg 1 ( reset $end
$var reg 1 ) wr $end
$scope module uut $end
$var wire 5 * addr [4:0] $end
$var wire 1 $ clk $end
$var wire 1 % cs $end
$var wire 16 + d_in [15:0] $end
$var wire 1 ' rd $end
$var wire 1 ( reset $end
$var wire 1 ) wr $end
$var wire 32 , result [31:0] $end
$var wire 1 - done $end
$var reg 16 . A [15:0] $end
$var reg 16 / B [15:0] $end
$var reg 32 0 d_out [31:0] $end
$var reg 1 1 init $end
$var reg 5 2 s [4:0] $end
$scope module sqr1 $end
$var wire 1 $ clk $end
$var wire 1 1 init $end
$var wire 16 3 op_A [15:0] $end
$var wire 16 4 op_B [15:0] $end
$var wire 1 ( reset $end
$var wire 17 5 subtrahend [16:0] $end
$var wire 1 6 msb_neg $end
$var wire 17 7 diff_full [16:0] $end
$var wire 1 8 Z $end
$var wire 16 9 A_upper [15:0] $end
$var wire 16 : A_lower [15:0] $end
$var wire 16 ; A2_new [15:0] $end
$var parameter 3 < CHECK $end
$var parameter 3 = CHECK_Z $end
$var parameter 3 > END1 $end
$var parameter 3 ? LOAD_A2 $end
$var parameter 3 @ LOAD_TMP $end
$var parameter 3 A SHIFT_DEC $end
$var parameter 3 B START $end
$var reg 32 C A [31:0] $end
$var reg 16 D R [15:0] $end
$var reg 5 E count [4:0] $end
$var reg 1 - done $end
$var reg 32 F result [31:0] $end
$var reg 3 G state [2:0] $end
$var reg 16 H tmp [15:0] $end
$upscope $end
$upscope $end
$scope begin TEST_CASE $end
$upscope $end
$upscope $end
$scope module peripheral_sqr_TB $end
$scope module uut $end
$scope module sqr1 $end
$upscope $end
$upscope $end
$upscope $end
$scope module peripheral_sqr_TB $end
$scope module uut $end
$scope module sqr1 $end
$upscope $end
$upscope $end
$upscope $end
$enddefinitions $end
$comment Show the parameter values. $end
$dumpall
b0 B
b1 A
b10 @
b100 ?
b110 >
b101 =
b11 <
b10100 "
$end
#0
$dumpvars
bx H
bx G
bx F
bx E
bx D
bx C
bx ;
bx :
bx 9
x8
bx 7
x6
b0xxxxxxxxxxxxxxxx 5
bx 4
bx 3
b0 2
x1
bx 0
bx /
bx .
x-
bx ,
b0 +
b0 *
0)
0(
0'
b0 &
0%
0$
b0 #
bx !
$end
#10000
b0 G
1$
#20000
16
b1111111111111111 ;
b11111111111111111 7
b1 5
b0 9
b0 :
b0 !
b0 0
01
b0 /
b0 4
b0 .
b0 3
18
b0 E
b0 H
b0 D
b0 C
b0 ,
b0 F
0-
1(
0$
#30000
1$
#40000
0(
0$
#50000
1$
#60000
0$
#70000
1$
#80000
0$
#90000
1$
#100000
0$
#110000
1$
#120000
b1 2
0$
b100 #
b100 *
b10010000 &
b10010000 +
1)
1%
#130000
b10010000 .
b10010000 3
1$
#140000
b0 2
0$
0)
0%
#150000
1$
#160000
0$
#170000
1$
#180000
0$
#190000
1$
#200000
b10 2
0$
b1000 #
b1000 *
b0 &
b0 +
1)
1%
#210000
1$
#220000
b0 2
0$
0)
0%
#230000
1$
#240000
0$
#250000
1$
#260000
0$
#270000
1$
#280000
b100 2
0$
b1100 #
b1100 *
b1 &
b1 +
1)
1%
#290000
11
1$
#300000
b0 2
0$
0)
0%
#310000
b10010000 :
b1 G
08
b1000 E
b10010000 C
1$
#320000
0$
#330000
b1001000000 :
b10 G
b111 E
b1001000000 C
1$
#340000
0$
#350000
b11 G
1$
#360000
0$
#370000
b101 G
1$
#380000
0$
#390000
b1 G
1$
#400000
0$
#410000
b100100000000 :
b10 G
b110 E
b100100000000 C
1$
#420000
0$
#430000
b11 G
1$
#440000
0$
#450000
b101 G
1$
#460000
0$
#470000
b1 G
1$
#480000
0$
#490000
b10010000000000 :
b10 G
b101 E
b10010000000000 C
1$
#500000
0$
#510000
b11 G
1$
#520000
0$
#530000
b101 G
1$
#540000
0$
#550000
b1 G
1$
#560000
0$
#570000
b1001000000000000 :
b10 G
b100 E
b1001000000000000 C
1$
#580000
0$
#590000
b11 G
1$
#600000
0$
#610000
b101 G
1$
#620000
0$
#630000
b1 G
1$
#640000
0$
#650000
06
b1 ;
b1 7
b10 9
b100000000000000 :
b10 G
b11 E
b100100000000000000 C
1$
#660000
0$
#670000
b11 G
1$
#680000
0$
#690000
b100 G
1$
#700000
0$
#710000
b0 ;
b0 7
b1 9
b101 G
b10100000000000000 C
b1 D
1$
#720000
0$
#730000
b1 G
1$
#740000
0$
#750000
b100 ;
b100 7
b101 9
b0 :
b10 G
b10 E
b10 D
b1010000000000000000 C
1$
#760000
0$
#770000
b0 ;
b0 7
b101 5
b11 G
b10 H
1$
#780000
0$
#790000
b100 G
1$
#800000
0$
#810000
16
b1111111111111011 ;
b11111111111111011 7
b0 9
b101 G
b0 C
b11 D
1$
#820000
0$
#830000
b1 G
1$
#840000
0$
#850000
b10 G
b1 E
b110 D
1$
#860000
0$
#870000
b1111111111110011 ;
b11111111111110011 7
b1101 5
b11 G
b110 H
1$
#880000
0$
#890000
b101 G
1$
#900000
0$
#910000
b1 G
1$
#920000
0$
#930000
b10 G
18
b0 E
b1100 D
1$
#940000
0$
#950000
b1111111111100111 ;
b11111111111100111 7
b11001 5
b11 G
b1100 H
1$
#960000
0$
#970000
b101 G
1$
#980000
0$
#990000
b110 G
1$
#1000000
0$
#1010000
b1100 ,
b1100 F
1-
1$
