perip_div_TB.vcd
$date
	Sun Nov 23 23:14:08 2025
$end
$version
	Icarus Verilog
$end
$timescale
	1ps
$end
$scope module peripheral_div_TB $end
$var wire 32 ! d_out [31:0] $end
$var parameter 32 " PERIOD $end
$var reg 5 # addr [4:0] $end
$var reg 1 $ clk $end
$var reg 1 % cs $end
$var reg 16 & d_in [15:0] $end
$var reg 1 ' rd $end
$var reg 1 ( reset $end
$var reg 1 ) wr $end
$scope module uut $end
$var wire 5 * addr [4:0] $end
$var wire 1 $ clk $end
$var wire 1 % cs $end
$var wire 16 + d_in [15:0] $end
$var wire 1 ' rd $end
$var wire 1 ( reset $end
$var wire 1 ) wr $end
$var wire 32 , result [31:0] $end
$var wire 1 - done $end
$var reg 16 . A [15:0] $end
$var reg 16 / B [15:0] $end
$var reg 32 0 d_out [31:0] $end
$var reg 1 1 init $end
$var reg 5 2 s [4:0] $end
$scope module div1 $end
$var wire 1 $ clk $end
$var wire 1 1 init $end
$var wire 16 3 op_A [15:0] $end
$var wire 16 4 op_B [15:0] $end
$var wire 1 ( reset $end
$var wire 16 5 A_minus_B [15:0] $end
$var parameter 3 6 CHECK_END $end
$var parameter 3 7 CHECK_GREATER $end
$var parameter 3 8 END $end
$var parameter 3 9 SHIFT $end
$var parameter 3 : START $end
$var parameter 3 ; START1 $end
$var reg 32 < A [31:0] $end
$var reg 16 = B [15:0] $end
$var reg 5 > count [4:0] $end
$var reg 1 - done $end
$var reg 32 ? result [31:0] $end
$var reg 3 @ state [2:0] $end
$upscope $end
$upscope $end
$scope begin TEST_CASE $end
$upscope $end
$upscope $end
$scope module peripheral_div_TB $end
$scope module uut $end
$scope module div1 $end
$upscope $end
$upscope $end
$upscope $end
$scope module peripheral_div_TB $end
$scope module uut $end
$scope module div1 $end
$upscope $end
$upscope $end
$upscope $end
$enddefinitions $end
$comment Show the parameter values. $end
$dumpall
b101 ;
b0 :
b10 9
b100 8
b1 7
b11 6
b10100 "
$end
#0
$dumpvars
bx @
b0 ?
bx >
bx =
bx <
bx 5
bx 4
bx 3
b0 2
x1
bx 0
bx /
bx .
0-
b0 ,
b0 +
b0 *
0)
0(
0'
b0 &
0%
0$
b0 #
bx !
$end
#10000
b0 @
1$
#20000
b0 !
b0 0
01
b0 /
b0 4
b0 .
b0 3
1(
0$
#30000
1$
#40000
0(
0$
#50000
b10000 >
1$
#60000
0$
#70000
1$
#80000
0$
#90000
1$
#100000
0$
#110000
1$
#120000
0$
b1 2
b100 #
b100 *
b110001 &
b110001 +
1)
1%
#130000
b110001 .
b110001 3
1$
#140000
0$
b0 2
0)
0%
#150000
1$
#160000
0$
#170000
1$
#180000
0$
#190000
1$
#200000
0$
b10 2
b1000 #
b1000 *
b111 &
b111 +
1)
1%
#210000
b111 /
b111 4
1$
#220000
0$
b0 2
0)
0%
#230000
1$
#240000
0$
#250000
1$
#260000
0$
#270000
1$
#280000
0$
b100 2
b1100 #
b1100 *
b1 &
b1 +
1)
1%
#290000
11
1$
#300000
0$
b0 2
0)
0%
#310000
b101 @
1$
#320000
0$
#330000
b1111111111111001 5
b111 =
b110001 <
b10 @
1$
#340000
0$
#350000
b1 @
b1111 >
b1100010 <
1$
#360000
0$
#370000
b11 @
1$
#380000
0$
#390000
b10 @
1$
#400000
0$
#410000
b1 @
b1110 >
b11000100 <
1$
#420000
0$
#430000
b11 @
1$
#440000
0$
#450000
b10 @
1$
#460000
0$
#470000
b1 @
b1101 >
b110001000 <
1$
#480000
0$
#490000
b11 @
1$
#500000
0$
#510000
b10 @
1$
#520000
0$
#530000
b1 @
b1100 >
b1100010000 <
1$
#540000
0$
#550000
b11 @
1$
#560000
0$
#570000
b10 @
1$
#580000
0$
#590000
b1 @
b1011 >
b11000100000 <
1$
#600000
0$
#610000
b11 @
1$
#620000
0$
#630000
b10 @
1$
#640000
0$
#650000
b1 @
b1010 >
b110001000000 <
1$
#660000
0$
#670000
b11 @
1$
#680000
0$
#690000
b10 @
1$
#700000
0$
#710000
b1 @
b1001 >
b1100010000000 <
1$
#720000
0$
#730000
b11 @
1$
#740000
0$
#750000
b10 @
1$
#760000
0$
#770000
b1 @
b1000 >
b11000100000000 <
1$
#780000
0$
#790000
b11 @
1$
#800000
0$
#810000
b10 @
1$
#820000
0$
#830000
b1 @
b111 >
b110001000000000 <
1$
#840000
0$
#850000
b11 @
1$
#860000
0$
#870000
b10 @
1$
#880000
0$
#890000
b1 @
b110 >
b1100010000000000 <
1$
#900000
0$
#910000
b11 @
1$
#920000
0$
#930000
b10 @
1$
#940000
0$
#950000
b1111111111111010 5
b1 @
b101 >
b11000100000000000 <
1$
#960000
0$
#970000
b11 @
1$
#980000
0$
#990000
b10 @
1$
#1000000
0$
#1010000
b1111111111111100 5
b1 @
b100 >
b110001000000000000 <
1$
#1020000
0$
#1030000
b11 @
1$
#1040000
0$
#1050000
b10 @
1$
#1060000
0$
#1070000
b1111111111111111 5
b1 @
b11 >
b1100010000000000000 <
1$
#1080000
0$
#1090000
b11 @
1$
#1100000
0$
#1110000
b10 @
1$
#1120000
0$
#1130000
b101 5
b1 @
b10 >
b11000100000000000000 <
1$
#1140000
0$
#1150000
b1111111111111110 5
b11 @
b1010100000000000001 <
1$
#1160000
0$
#1170000
b10 @
1$
#1180000
0$
#1190000
b11 5
b1 @
b1 >
b10101000000000000010 <
1$
#1200000
0$
#1210000
b1111111111111100 5
b11 @
b111000000000000011 <
1$
#1220000
0$
#1230000
b10 @
1$
#1240000
0$
#1250000
b0 5
b1 @
b0 >
b1110000000000000110 <
1$
#1260000
0$
#1270000
b1111111111111001 5
b11 @
b111 <
1$
#1280000
0$
#1290000
b111 ,
b111 ?
b100 @
1$
#1300000
0$
#1310000
b1 >
1-
1$
#1320000
0$
#1330000
b10 >
1$
#1340000
0$
#1350000
b11 >
1$
#1360000
0$
#1370000
b100 >
1$
#1380000
0$
#1390000
b101 >
1$
#1400000
0$
#1410000
b110 >
1$
#1420000
0$
#1430000
b111 >
1$
#1440000
0$
#1450000
b1000 >
1$
#1460000
0$
#1470000
b1001 >
1$
#1480000
0$
#1490000
b1010 >
1$
#1500000
0$
b10000 2
b10100 #
b10100 *
1'
1%
#1510000
b1 !
b1 0
b1011 >
1$
#1520000
0$
b0 2
0'
0%
#1530000
b1100 >
1$
#1540000
0$
b1000 2
b10000 #
b10000 *
1'
1%
#1550000
b111 !
b111 0
b1101 >
1$
#1560000
0$
b0 2
0'
0%
#1570000
b1110 >
1$
#1580000
0$
#1590000
b1111 >
1$
#1600000
0$
#1610000
b10000 >
1$
#1620000
0$
#1630000
b10001 >
1$
#1640000
0$
#1650000
b10010 >
1$
#1660000
0$
#1670000
b10011 >
1$
#1680000
0$
#1690000
b10100 >
1$
#1700000
0$
#1710000
b10101 >
1$
#1720000
0$
#1730000
b10110 >
1$
#1740000
0$
#1750000
b10111 >
1$
#1760000
0$
#1770000
b11000 >
1$
#1780000
0$
#1790000
b11001 >
1$
#1800000
0$
#1810000
b11010 >
1$
#1820000
0$
#1830000
b11011 >
1$
#1840000
0$
#1850000
b11100 >
1$
#1860000
0$
#1870000
b11101 >
1$
#1880000
0$
#1890000
b0 @
b11110 >
1$
#1900000
0$
#1910000
0-
b101 @
b0 ,
b0 ?
b10000 >
1$
#1920000
0$
#1930000
b110001 <
b10 @
1$
#1940000
0$
#1950000
b1 @
b1111 >
b1100010 <
1$
#1960000
b0 !
b0 0
01
b0 /
b0 4
b0 .
b0 3
b0 @
1(
0$
#1970000
1$
#1980000
0(
0$
#1990000
b10000 >
1$
