tb_peripheral_mult.vcd
$date
	Sun Nov 23 21:39:56 2025
$end
$version
	Icarus Verilog
$end
$timescale
	1ps
$end
$scope module tb_peripheral_mult $end
$var wire 32 ! d_out [31:0] $end
$var reg 5 " addr [4:0] $end
$var reg 1 # clk $end
$var reg 1 $ cs $end
$var reg 16 % d_in [15:0] $end
$var reg 1 & rd $end
$var reg 1 ' reset $end
$var reg 1 ( wr $end
$scope module uut $end
$var wire 5 ) addr [4:0] $end
$var wire 1 # clk $end
$var wire 1 $ cs $end
$var wire 16 * d_in [15:0] $end
$var wire 1 & rd $end
$var wire 1 ' reset $end
$var wire 1 ( wr $end
$var wire 32 + result [31:0] $end
$var wire 1 , done $end
$var reg 16 - A [15:0] $end
$var reg 16 . B [15:0] $end
$var reg 32 / d_out [31:0] $end
$var reg 1 0 init $end
$var reg 5 1 s [4:0] $end
$scope module mult1 $end
$var wire 1 # clk $end
$var wire 1 0 init $end
$var wire 16 2 op_A [15:0] $end
$var wire 16 3 op_B [15:0] $end
$var wire 1 ' reset $end
$var parameter 3 4 ADD $end
$var parameter 3 5 CHECK $end
$var parameter 3 6 END $end
$var parameter 3 7 SHIFT $end
$var parameter 3 8 START $end
$var parameter 3 9 START1 $end
$var reg 16 : A [15:0] $end
$var reg 16 ; B [15:0] $end
$var reg 5 < count [4:0] $end
$var reg 1 , done $end
$var reg 32 = result [31:0] $end
$var reg 3 > state [2:0] $end
$upscope $end
$upscope $end
$scope task check_done $end
$upscope $end
$upscope $end
$enddefinitions $end
$comment Show the parameter values. $end
$dumpall
b101 9
b0 8
b10 7
b100 6
b1 5
b11 4
$end
#0
$dumpvars
b0 >
b0 =
bx <
bx ;
bx :
bx 3
bx 2
b0 1
x0
bx /
bx .
bx -
0,
b0 +
b0 *
b0 )
0(
1'
0&
b0 %
0$
0#
b0 "
bx !
$end
#5000
b0 .
b0 3
b0 -
b0 2
00
b0 !
b0 /
1#
#10000
0#
#15000
1#
#20000
0#
0'
#25000
b1 1
b0 <
b111 %
b111 *
b100 "
b100 )
1(
1$
1#
#30000
0#
#35000
b0 1
0$
0(
b111 -
b111 2
1#
#40000
0#
#45000
b10 1
b1001 %
b1001 *
b1000 "
b1000 )
1(
1$
1#
#50000
0#
#55000
b0 1
0$
0(
b1001 .
b1001 3
1#
#60000
0#
#65000
b100 1
b1 %
b1 *
b1100 "
b1100 )
1(
1$
1#
#70000
0#
#75000
b0 1
b101 >
0$
0(
10
1#
#80000
0#
#85000
b1001 ;
b111 :
b10000 1
b1 >
b10100 "
b10100 )
1&
1$
1#
#90000
0#
#95000
b0 1
b11 >
0$
0&
1#
#100000
0#
#105000
b111 +
b111 =
b10000 1
b10 >
1&
1$
1#
#110000
0#
#115000
b0 1
b1 >
b1110 :
b100 ;
0$
0&
1#
#120000
0#
#125000
b10000 1
b10 >
1&
1$
1#
#130000
0#
#135000
b0 1
b1 >
b11100 :
b10 ;
0$
0&
1#
#140000
0#
#145000
b10000 1
b10 >
1&
1$
1#
#150000
0#
#155000
b0 1
b1 >
b111000 :
b1 ;
0$
0&
1#
#160000
0#
#165000
b10000 1
b11 >
1&
1$
1#
#170000
0#
#175000
b111111 +
b111111 =
b0 1
b10 >
0$
0&
1#
#180000
0#
#185000
b10000 1
b100 >
b1110000 :
b0 ;
1&
1$
1#
#190000
0#
#195000
b0 1
b1 <
1,
0$
0&
1#
#200000
0#
#205000
b10000 1
b10 <
1&
1$
1#
#210000
0#
#215000
b0 1
b11 <
0$
0&
b1 !
b1 /
1#
#220000
0#
#225000
b10000 1
b100 <
1&
1$
1#
#230000
0#
#235000
b0 1
b101 <
0$
0&
1#
#240000
0#
#245000
b10000 1
b110 <
1&
1$
1#
#250000
0#
#255000
b0 1
b111 <
0$
0&
1#
#260000
0#
#265000
b10000 1
b1000 <
1&
1$
1#
#270000
0#
#275000
b0 1
b1001 <
0$
0&
1#
#280000
0#
#285000
b10000 1
b1010 <
1&
1$
1#
#290000
0#
#295000
b0 1
b1011 <
0$
0&
1#
#300000
0#
#305000
b10000 1
b1100 <
1&
1$
1#
#310000
0#
#315000
b0 1
b1101 <
0$
0&
1#
#320000
0#
#325000
b10000 1
b1110 <
1&
1$
1#
#330000
0#
#335000
b0 1
b1111 <
0$
0&
1#
#340000
0#
#345000
b10000 1
b10000 <
1&
1$
1#
#350000
0#
#355000
b0 1
b10001 <
0$
0&
1#
#360000
0#
#365000
b10000 1
b10010 <
1&
1$
1#
#370000
0#
#375000
b0 1
b10011 <
0$
0&
1#
#380000
0#
#385000
b10000 1
b10100 <
1&
1$
1#
#390000
0#
#395000
b0 1
b10101 <
0$
0&
1#
#400000
0#
#405000
b10000 1
b10110 <
1&
1$
1#
#410000
0#
#415000
b0 1
b10111 <
0$
0&
1#
#420000
0#
#425000
b10000 1
b11000 <
1&
1$
1#
#430000
0#
#435000
b0 1
b11001 <
0$
0&
1#
#440000
0#
#445000
b10000 1
b11010 <
1&
1$
1#
#450000
0#
#455000
b0 1
b11011 <
0$
0&
1#
#460000
0#
#465000
b10000 1
b11100 <
1&
1$
1#
#470000
0#
#475000
b0 1
b11101 <
0$
0&
1#
#480000
0#
#485000
b10000 1
b0 >
b11110 <
1&
1$
1#
#490000
0#
#495000
0,
b0 1
b101 >
b0 +
b0 =
b0 <
0$
0&
1#
#500000
0#
#505000
b1001 ;
b111 :
b10000 1
b1 >
1&
1$
1#
#510000
0#
#515000
b0 1
b11 >
0$
0&
b0 !
b0 /
1#
#520000
0#
#525000
b111 +
b111 =
b10000 1
b10 >
1&
1$
1#
#530000
0#
#535000
b0 1
b1 >
b1110 :
b100 ;
0$
0&
1#
#540000
0#
#545000
b10000 1
b10 >
1&
1$
1#
#550000
0#
#555000
b0 1
b1 >
b11100 :
b10 ;
0$
0&
1#
#560000
0#
#565000
b10000 1
b10 >
1&
1$
1#
#570000
0#
#575000
b0 1
b1 >
b111000 :
b1 ;
0$
0&
1#
#580000
0#
#585000
b10000 1
b11 >
1&
1$
1#
#590000
0#
#595000
b111111 +
b111111 =
b0 1
b10 >
0$
0&
1#
#600000
0#
#605000
b10000 1
b100 >
b1110000 :
b0 ;
1&
1$
1#
#610000
0#
#615000
b0 1
b1 <
1,
0$
0&
1#
#620000
0#
#625000
b10000 1
b10 <
1&
1$
1#
#630000
0#
#635000
b0 1
b11 <
0$
0&
b1 !
b1 /
1#
#640000
0#
#645000
b10000 1
b100 <
1&
1$
1#
#650000
0#
#655000
b0 1
b101 <
0$
0&
1#
#660000
0#
#665000
b10000 1
b110 <
1&
1$
1#
#670000
0#
#675000
b0 1
b111 <
0$
0&
1#
#680000
0#
#685000
b10000 1
b1000 <
1&
1$
1#
#690000
0#
#695000
b0 1
b1001 <
0$
0&
1#
#700000
0#
#705000
b10000 1
b1010 <
1&
1$
1#
#710000
0#
#715000
b0 1
b1011 <
0$
0&
1#
#720000
0#
#725000
b10000 1
b1100 <
1&
1$
1#
#730000
0#
#735000
b0 1
b1101 <
0$
0&
1#
#740000
0#
#745000
b10000 1
b1110 <
1&
1$
1#
#750000
0#
#755000
b0 1
b1111 <
0$
0&
1#
#760000
0#
#765000
b10000 1
b10000 <
1&
1$
1#
#770000
0#
#775000
b0 1
b10001 <
0$
0&
1#
#780000
0#
#785000
b10000 1
b10010 <
1&
1$
1#
#790000
0#
#795000
b0 1
b10011 <
0$
0&
1#
#800000
0#
#805000
b10000 1
b10100 <
1&
1$
1#
#810000
0#
#815000
b0 1
b10101 <
0$
0&
1#
#820000
0#
#825000
b10000 1
b10110 <
1&
1$
1#
#830000
0#
#835000
b0 1
b10111 <
0$
0&
1#
#840000
0#
#845000
b10000 1
b11000 <
1&
1$
1#
#850000
0#
#855000
b0 1
b11001 <
0$
0&
1#
#860000
0#
#865000
b10000 1
b11010 <
1&
1$
1#
#870000
0#
#875000
b0 1
b11011 <
0$
0&
1#
#880000
0#
#885000
b10000 1
b11100 <
1&
1$
1#
#890000
0#
#895000
b0 1
b11101 <
0$
0&
1#
#900000
0#
#905000
b10000 1
b0 >
b11110 <
1&
1$
1#
#910000
0#
#915000
0,
b0 1
b101 >
b0 +
b0 =
b0 <
0$
0&
1#
#920000
0#
#925000
b1001 ;
b111 :
b10000 1
b1 >
1&
1$
1#
#930000
0#
#935000
b0 1
b11 >
0$
0&
b0 !
b0 /
1#
#940000
0#
#945000
b111 +
b111 =
b10000 1
b10 >
1&
1$
1#
#950000
0#
#955000
b0 1
b1 >
b1110 :
b100 ;
0$
0&
1#
#960000
0#
#965000
b10000 1
b10 >
1&
1$
1#
#970000
0#
#975000
b0 1
b1 >
b11100 :
b10 ;
0$
0&
1#
#980000
0#
#985000
b10000 1
b10 >
1&
1$
1#
#990000
0#
#995000
b0 1
b1 >
b111000 :
b1 ;
0$
0&
1#
#1000000
0#
#1005000
b10000 1
b11 >
1&
1$
1#
#1010000
0#
#1015000
b111111 +
b111111 =
b0 1
b10 >
0$
0&
1#
#1020000
0#
#1025000
b10000 1
b100 >
b1110000 :
b0 ;
1&
1$
1#
#1030000
0#
#1035000
b0 1
b1 <
1,
0$
0&
1#
#1040000
0#
#1045000
b10000 1
b10 <
1&
1$
1#
#1050000
0#
#1055000
b0 1
b11 <
0$
0&
b1 !
b1 /
1#
#1060000
0#
#1065000
b10000 1
b100 <
1&
1$
1#
#1070000
0#
#1075000
b0 1
b101 <
0$
0&
1#
#1080000
0#
#1085000
b1000 1
b110 <
b10000 "
b10000 )
1&
1$
1#
#1090000
0#
#1095000
b0 1
b111 <
0$
0&
b111111 !
b111111 /
1#
#1100000
0#
#1105000
b1000 <
1#
#1110000
0#
#1115000
b1001 <
1#
#1120000
0#
#1125000
b1010 <
1#
#1130000
0#
#1135000
b1011 <
1#
#1140000
0#
#1145000
b1100 <
1#
